processor/cpu.vcd
$date
	Sun Jun 12 11:07:45 2016
$end
$version
	Icarus Verilog
$end
$timescale
	1ps
$end
$scope module main $end
$var wire 1 ! branch_is_done $end
$var wire 1 " branch_rs_open $end
$var wire 17 # cdb_1 [16:0] $end
$var wire 17 $ cdb_2 [16:0] $end
$var wire 17 % cdb_3 [16:0] $end
$var wire 17 & cdb_4 [16:0] $end
$var wire 18 ' cdb_5 [17:0] $end
$var wire 4 ( cdb_5_dest [3:0] $end
$var wire 17 ) cdb_6 [16:0] $end
$var wire 4 * cdb_6_dest [3:0] $end
$var wire 1 + dispatch_0_writing_to_us_0 $end
$var wire 1 , dispatch_0_writing_to_us_1 $end
$var wire 20 - element0 [19:0] $end
$var wire 20 . element1 [19:0] $end
$var wire 20 / element10 [19:0] $end
$var wire 20 0 element11 [19:0] $end
$var wire 20 1 element12 [19:0] $end
$var wire 20 2 element13 [19:0] $end
$var wire 20 3 element14 [19:0] $end
$var wire 20 4 element15 [19:0] $end
$var wire 20 5 element2 [19:0] $end
$var wire 20 6 element3 [19:0] $end
$var wire 20 7 element4 [19:0] $end
$var wire 20 8 element5 [19:0] $end
$var wire 20 9 element6 [19:0] $end
$var wire 20 : element7 [19:0] $end
$var wire 20 ; element8 [19:0] $end
$var wire 20 < element9 [19:0] $end
$var wire 1 = fx_rs_0_open $end
$var wire 1 > fx_rs_1_open $end
$var wire 1 ? fxu_0_next_is_src_0 $end
$var wire 1 @ fxu_0_next_is_src_1 $end
$var wire 1 A fxu_1_next_is_src_0 $end
$var wire 1 B fxu_1_next_is_src_1 $end
$var wire 1 C halt $end
$var wire 1 D jeq_ready $end
$var wire 1 E ld_rs_0_open $end
$var wire 1 F ld_rs_1_open $end
$var wire 1 G ldu_0_next_is_src_0 $end
$var wire 1 H ldu_0_next_is_src_1 $end
$var wire 1 I ldu_1_next_is_src_0 $end
$var wire 1 J ldu_1_next_is_src_1 $end
$var wire 1 K load_enabled_0_cpy $end
$var wire 1 L load_enabled_1_cpy $end
$var wire 16 M load_from_0_cpy [15:0] $end
$var wire 16 N load_from_1_cpy [15:0] $end
$var wire 1 O other_rs_empty $end
$var wire 1 P print_next_is_src_0 $end
$var wire 1 Q print_next_is_src_1 $end
$var wire 1 R print_rs_open $end
$var wire 1 S printtemp1 $end
$var wire 1 T printtemp2 $end
$var wire 1 U rs_0_is_src_0 $end
$var wire 1 V rs_0_is_src_1 $end
$var wire 1 W rs_0_src_0_is_on_cdb $end
$var wire 1 X rs_0_src_1_is_on_cdb $end
$var wire 1 Y rs_1_is_src_0 $end
$var wire 1 Z rs_1_is_src_1 $end
$var wire 1 [ rs_1_is_src_or_data_0 $end
$var wire 1 \ rs_1_is_src_or_data_1 $end
$var wire 1 ] rs_1_src_0_is_on_cdb $end
$var wire 1 ^ rs_1_src_1_is_on_cdb $end
$var wire 16 _ temp_waiting_on [15:0] $end
$var wire 1 ` temp_is_src $end
$var wire 1 a rs_entry_1_ready $end
$var wire 68 b rs_entry_1 [67:0] $end
$var wire 1 c rs_entry_0_ready $end
$var wire 68 d rs_entry_0 [67:0] $end
$var wire 16 e rs_1_src_or_data_1 [15:0] $end
$var wire 16 f rs_1_src_or_data_0 [15:0] $end
$var wire 16 g rs_1_src_1 [15:0] $end
$var wire 16 h rs_1_src_0 [15:0] $end
$var wire 4 i rs_1_reg_1 [3:0] $end
$var wire 4 j rs_1_reg_0 [3:0] $end
$var wire 1 k rs_1_dest $end
$var wire 16 l rs_1_data_1 [15:0] $end
$var wire 16 m rs_1_data_0 [15:0] $end
$var wire 16 n rs_0_src_or_data_1 [15:0] $end
$var wire 16 o rs_0_src_or_data_0 [15:0] $end
$var wire 16 p rs_0_src_1 [15:0] $end
$var wire 16 q rs_0_src_0 [15:0] $end
$var wire 4 r rs_0_reg_1 [3:0] $end
$var wire 4 s rs_0_reg_0 [3:0] $end
$var wire 1 t rs_0_dest $end
$var wire 16 u rs_0_data_1 [15:0] $end
$var wire 16 v rs_0_data_0 [15:0] $end
$var wire 3 w reg_9_old_who [2:0] $end
$var wire 3 x reg_9_next_who [2:0] $end
$var wire 16 y reg_9_next_data [15:0] $end
$var wire 3 z reg_8_old_who [2:0] $end
$var wire 3 { reg_8_next_who [2:0] $end
$var wire 16 | reg_8_next_data [15:0] $end
$var wire 3 } reg_7_old_who [2:0] $end
$var wire 3 ~ reg_7_next_who [2:0] $end
$var wire 16 !" reg_7_next_data [15:0] $end
$var wire 3 "" reg_6_old_who [2:0] $end
$var wire 3 #" reg_6_next_who [2:0] $end
$var wire 16 $" reg_6_next_data [15:0] $end
$var wire 3 %" reg_5_old_who [2:0] $end
$var wire 3 &" reg_5_next_who [2:0] $end
$var wire 16 '" reg_5_next_data [15:0] $end
$var wire 3 (" reg_4_old_who [2:0] $end
$var wire 3 )" reg_4_next_who [2:0] $end
$var wire 16 *" reg_4_next_data [15:0] $end
$var wire 3 +" reg_3_old_who [2:0] $end
$var wire 3 ," reg_3_next_who [2:0] $end
$var wire 16 -" reg_3_next_data [15:0] $end
$var wire 3 ." reg_2_old_who [2:0] $end
$var wire 3 /" reg_2_next_who [2:0] $end
$var wire 16 0" reg_2_next_data [15:0] $end
$var wire 3 1" reg_1_old_who [2:0] $end
$var wire 3 2" reg_1_next_who [2:0] $end
$var wire 16 3" reg_1_next_data [15:0] $end
$var wire 3 4" reg_15_old_who [2:0] $end
$var wire 3 5" reg_15_next_who [2:0] $end
$var wire 16 6" reg_15_next_data [15:0] $end
$var wire 3 7" reg_14_old_who [2:0] $end
$var wire 3 8" reg_14_next_who [2:0] $end
$var wire 16 9" reg_14_next_data [15:0] $end
$var wire 3 :" reg_13_old_who [2:0] $end
$var wire 3 ;" reg_13_next_who [2:0] $end
$var wire 16 <" reg_13_next_data [15:0] $end
$var wire 3 =" reg_12_old_who [2:0] $end
$var wire 3 >" reg_12_next_who [2:0] $end
$var wire 16 ?" reg_12_next_data [15:0] $end
$var wire 3 @" reg_11_old_who [2:0] $end
$var wire 3 A" reg_11_next_who [2:0] $end
$var wire 16 B" reg_11_next_data [15:0] $end
$var wire 3 C" reg_10_old_who [2:0] $end
$var wire 3 D" reg_10_next_who [2:0] $end
$var wire 16 E" reg_10_next_data [15:0] $end
$var wire 3 F" reg_0_old_who [2:0] $end
$var wire 3 G" reg_0_next_who [2:0] $end
$var wire 16 H" reg_0_next_data [15:0] $end
$var wire 1 I" printtemp $end
$var wire 17 J" print_src_1_on_cdb [16:0] $end
$var wire 17 K" print_src_0_on_cdb [16:0] $end
$var wire 16 L" print_next_waiting_on_1 [15:0] $end
$var wire 16 M" print_next_waiting_on_0 [15:0] $end
$var wire 32 N" print_inst [31:0] $end
$var wire 68 O" print_entry [67:0] $end
$var wire 17 P" print_data [16:0] $end
$var wire 16 Q" pc1 [15:0] $end
$var wire 17 R" old_who_9_exec_now [16:0] $end
$var wire 17 S" old_who_8_exec_now [16:0] $end
$var wire 17 T" old_who_7_exec_now [16:0] $end
$var wire 17 U" old_who_6_exec_now [16:0] $end
$var wire 17 V" old_who_5_exec_now [16:0] $end
$var wire 17 W" old_who_4_exec_now [16:0] $end
$var wire 17 X" old_who_3_exec_now [16:0] $end
$var wire 17 Y" old_who_2_exec_now [16:0] $end
$var wire 17 Z" old_who_1_exec_now [16:0] $end
$var wire 17 [" old_who_15_exec_now [16:0] $end
$var wire 17 \" old_who_14_exec_now [16:0] $end
$var wire 17 ]" old_who_13_exec_now [16:0] $end
$var wire 17 ^" old_who_12_exec_now [16:0] $end
$var wire 17 _" old_who_11_exec_now [16:0] $end
$var wire 17 `" old_who_10_exec_now [16:0] $end
$var wire 17 a" old_who_0_exec_now [16:0] $end
$var wire 16 b" next_pc [15:0] $end
$var wire 1 c" loadReady1 $end
$var wire 1 d" loadReady0 $end
$var wire 16 e" loadOut1 [15:0] $end
$var wire 16 f" loadOut0 [15:0] $end
$var wire 17 g" ldu_1_src_1_on_cdb [16:0] $end
$var wire 17 h" ldu_1_src_0_on_cdb [16:0] $end
$var wire 16 i" ldu_1_next_waiting_on_1 [15:0] $end
$var wire 16 j" ldu_1_next_waiting_on_0 [15:0] $end
$var wire 16 k" ldu_1_load_from [15:0] $end
$var wire 1 l" ldu_1_load_enabled $end
$var wire 32 m" ldu_1_inst [31:0] $end
$var wire 68 n" ldu_1_entry [67:0] $end
$var wire 17 o" ldu_1_data_0 [16:0] $end
$var wire 17 p" ldu_0_src_1_on_cdb [16:0] $end
$var wire 17 q" ldu_0_src_0_on_cdb [16:0] $end
$var wire 16 r" ldu_0_next_waiting_on_1 [15:0] $end
$var wire 16 s" ldu_0_next_waiting_on_0 [15:0] $end
$var wire 16 t" ldu_0_load_from [15:0] $end
$var wire 1 u" ldu_0_load_enabled $end
$var wire 32 v" ldu_0_inst [31:0] $end
$var wire 68 w" ldu_0_entry [67:0] $end
$var wire 17 x" ldu_0_data_0 [16:0] $end
$var wire 17 y" jeq_data [16:0] $end
$var wire 3 z" insts_executed [2:0] $end
$var wire 3 {" inst_dispatching_reg_9_dest [2:0] $end
$var wire 33 |" inst_dispatching_reg_9 [32:0] $end
$var wire 3 }" inst_dispatching_reg_8_dest [2:0] $end
$var wire 33 ~" inst_dispatching_reg_8 [32:0] $end
$var wire 3 !# inst_dispatching_reg_7_dest [2:0] $end
$var wire 33 "# inst_dispatching_reg_7 [32:0] $end
$var wire 3 ## inst_dispatching_reg_6_dest [2:0] $end
$var wire 33 $# inst_dispatching_reg_6 [32:0] $end
$var wire 3 %# inst_dispatching_reg_5_dest [2:0] $end
$var wire 33 &# inst_dispatching_reg_5 [32:0] $end
$var wire 3 '# inst_dispatching_reg_4_dest [2:0] $end
$var wire 33 (# inst_dispatching_reg_4 [32:0] $end
$var wire 3 )# inst_dispatching_reg_3_dest [2:0] $end
$var wire 33 *# inst_dispatching_reg_3 [32:0] $end
$var wire 3 +# inst_dispatching_reg_2_dest [2:0] $end
$var wire 33 ,# inst_dispatching_reg_2 [32:0] $end
$var wire 3 -# inst_dispatching_reg_1_dest [2:0] $end
$var wire 3 .# inst_dispatching_reg_15_dest [2:0] $end
$var wire 33 /# inst_dispatching_reg_15 [32:0] $end
$var wire 3 0# inst_dispatching_reg_14_dest [2:0] $end
$var wire 33 1# inst_dispatching_reg_14 [32:0] $end
$var wire 3 2# inst_dispatching_reg_13_dest [2:0] $end
$var wire 33 3# inst_dispatching_reg_13 [32:0] $end
$var wire 3 4# inst_dispatching_reg_12_dest [2:0] $end
$var wire 33 5# inst_dispatching_reg_12 [32:0] $end
$var wire 3 6# inst_dispatching_reg_11_dest [2:0] $end
$var wire 33 7# inst_dispatching_reg_11 [32:0] $end
$var wire 3 8# inst_dispatching_reg_10_dest [2:0] $end
$var wire 33 9# inst_dispatching_reg_10 [32:0] $end
$var wire 33 :# inst_dispatching_reg_1 [32:0] $end
$var wire 3 ;# inst_dispatching_reg_0_dest [2:0] $end
$var wire 33 <# inst_dispatching_reg_0 [32:0] $end
$var wire 17 =# fxu_1_src_1_on_cdb [16:0] $end
$var wire 17 ># fxu_1_src_0_on_cdb [16:0] $end
$var wire 16 ?# fxu_1_next_waiting_on_1 [15:0] $end
$var wire 16 @# fxu_1_next_waiting_on_0 [15:0] $end
$var wire 32 A# fxu_1_inst [31:0] $end
$var wire 68 B# fxu_1_entry [67:0] $end
$var wire 17 C# fxu_1_data_2 [16:0] $end
$var wire 17 D# fxu_1_data_1 [16:0] $end
$var wire 17 E# fxu_1_data_0 [16:0] $end
$var wire 17 F# fxu_1_data [16:0] $end
$var wire 17 G# fxu_0_src_1_on_cdb [16:0] $end
$var wire 17 H# fxu_0_src_0_on_cdb [16:0] $end
$var wire 16 I# fxu_0_next_waiting_on_1 [15:0] $end
$var wire 16 J# fxu_0_next_waiting_on_0 [15:0] $end
$var wire 32 K# fxu_0_inst [31:0] $end
$var wire 68 L# fxu_0_entry [67:0] $end
$var wire 17 M# fxu_0_data_2 [16:0] $end
$var wire 17 N# fxu_0_data_1 [16:0] $end
$var wire 17 O# fxu_0_data_0 [16:0] $end
$var wire 17 P# fxu_0_data [16:0] $end
$var wire 1 Q# fetchReady1 $end
$var wire 1 R# fetchReady $end
$var wire 16 S# fetchOutpc1 [15:0] $end
$var wire 16 T# fetchOutpc [15:0] $end
$var wire 16 U# fetchOut1 [15:0] $end
$var wire 16 V# fetchOut [15:0] $end
$var wire 32 W# dispatching_inst_1 [31:0] $end
$var wire 32 X# dispatching_inst_0 [31:0] $end
$var wire 3 Y# dispatch_destination_1 [2:0] $end
$var wire 3 Z# dispatch_destination_0 [2:0] $end
$var wire 17 [# dispatch_9_exec_now [16:0] $end
$var wire 17 \# dispatch_8_exec_now [16:0] $end
$var wire 17 ]# dispatch_7_exec_now [16:0] $end
$var wire 17 ^# dispatch_6_exec_now [16:0] $end
$var wire 17 _# dispatch_5_exec_now [16:0] $end
$var wire 17 `# dispatch_4_exec_now [16:0] $end
$var wire 17 a# dispatch_3_exec_now [16:0] $end
$var wire 17 b# dispatch_2_exec_now [16:0] $end
$var wire 17 c# dispatch_1_exec_now [16:0] $end
$var wire 17 d# dispatch_15_exec_now [16:0] $end
$var wire 17 e# dispatch_14_exec_now [16:0] $end
$var wire 17 f# dispatch_13_exec_now [16:0] $end
$var wire 17 g# dispatch_12_exec_now [16:0] $end
$var wire 17 h# dispatch_11_exec_now [16:0] $end
$var wire 17 i# dispatch_10_exec_now [16:0] $end
$var wire 17 j# dispatch_0_exec_now [16:0] $end
$var wire 1 k# data_equal $end
$var wire 1 l# cycle $end
$var wire 1 m# clk $end
$var wire 16 n# cdb_6_pc [15:0] $end
$var wire 16 o# cdb_5_pc [15:0] $end
$var wire 16 p# cdb_4_pc [15:0] $end
$var wire 4 q# cdb_4_dest [3:0] $end
$var wire 16 r# cdb_3_pc [15:0] $end
$var wire 4 s# cdb_3_dest [3:0] $end
$var wire 16 t# cdb_2_pc [15:0] $end
$var wire 4 u# cdb_2_dest [3:0] $end
$var wire 16 v# cdb_1_pc [15:0] $end
$var wire 4 w# cdb_1_dest [3:0] $end
$var wire 17 x# branch_src_1_on_cdb [16:0] $end
$var wire 17 y# branch_src_0_on_cdb [16:0] $end
$var wire 16 z# branch_next_waiting_on_1 [15:0] $end
$var wire 16 {# branch_next_waiting_on_0 [15:0] $end
$var wire 1 |# branch_next_is_src_1 $end
$var wire 1 }# branch_next_is_src_0 $end
$var wire 32 ~# branch_inst [31:0] $end
$var wire 16 !$ branch_immediate [15:0] $end
$var wire 68 "$ branch_entry [67:0] $end
$var wire 18 #$ branch_data [17:0] $end
$var wire 1 $$ IBqfull $end
$var reg 10 %$ IBqhead [9:0] $end
$var reg 10 &$ IBqsize [9:0] $end
$var reg 10 '$ IBqtail [9:0] $end
$var reg 68 ($ branch_rs [67:0] $end
$var reg 1 )$ final_halt $end
$var reg 68 *$ fx_rs_0 [67:0] $end
$var reg 68 +$ fx_rs_1 [67:0] $end
$var reg 68 ,$ ld_rs_0 [67:0] $end
$var reg 68 -$ ld_rs_1 [67:0] $end
$var reg 1 .$ ldu_0_is_loading $end
$var reg 1 /$ ldu_1_is_loading $end
$var reg 16 0$ pc [15:0] $end
$var reg 68 1$ print_rs [67:0] $end
$upscope $end
$scope module main $end
$scope module i0 $end
$var wire 1 m# clk $end
$var wire 16 2$ fetchAddr [15:0] $end
$var wire 16 3$ fetchAddr1 [15:0] $end
$var wire 1 4$ fetchEnable $end
$var wire 1 5$ fetchEnable1 $end
$var wire 16 6$ loadAddr0 [15:0] $end
$var wire 16 7$ loadAddr1 [15:0] $end
$var wire 1 K loadEnable0 $end
$var wire 1 L loadEnable1 $end
$var wire 1 c" loadReady1 $end
$var wire 1 d" loadReady0 $end
$var wire 16 8$ loadData1 [15:0] $end
$var wire 16 9$ loadData0 [15:0] $end
$var wire 1 Q# fetchReady1 $end
$var wire 1 R# fetchReady $end
$var wire 16 :$ fetchOutpc1 [15:0] $end
$var wire 16 ;$ fetchOutpc [15:0] $end
$var wire 16 <$ fetchData1 [15:0] $end
$var wire 16 =$ fetchData [15:0] $end
$var reg 16 >$ fetchCounter [15:0] $end
$var reg 16 ?$ fetchCounter1 [15:0] $end
$var reg 16 @$ fetchPtr [15:0] $end
$var reg 16 A$ fetchPtr1 [15:0] $end
$var reg 16 B$ loadCounter0 [15:0] $end
$var reg 16 C$ loadCounter1 [15:0] $end
$var reg 16 D$ loadPtr0 [15:0] $end
$var reg 16 E$ loadPtr1 [15:0] $end
$upscope $end
$upscope $end
$enddefinitions $end
#0
$dumpvars
bx E$
bx D$
b0 C$
b0 B$
bx A$
bx @$
b0 ?$
b0 >$
bx =$
bx <$
bx ;$
bx :$
bx 9$
bx 8$
b0 7$
b0 6$
15$
14$
b1 3$
b0 2$
b0 1$
b0 0$
0/$
0.$
b0 -$
b0 ,$
b0 +$
b0 *$
0)$
b0 ($
b0 '$
b0 &$
b0 %$
0$$
b0 #$
b0 "$
b0 !$
b0 ~#
0}#
0|#
b0 {#
b0 z#
b0 y#
b0 x#
b0 w#
b0 v#
b0 u#
b0 t#
b0 s#
b0 r#
b0 q#
b0 p#
b0 o#
b0 n#
1m#
0l#
1k#
b0 j#
b0 i#
b0 h#
b0 g#
b0 f#
b0 e#
b0 d#
b0 c#
b0 b#
b0 a#
b0 `#
b0 _#
b0 ^#
b0 ]#
b0 \#
b0 [#
b0 Z#
b0 Y#
b1110000000000000000000000000000 X#
b1110000000000000000000000000000 W#
bx V#
bx U#
bx T#
bx S#
0R#
0Q#
b0 P#
b10000000000000000 O#
b10000000000000000 N#
b0 M#
b0 L#
b0 K#
b0 J#
b0 I#
b0 H#
b0 G#
b0 F#
b10000000000000000 E#
b10000000000000000 D#
b0 C#
b0 B#
b0 A#
b0 @#
b0 ?#
b0 >#
b0 =#
b0 <#
b0 ;#
b0 :#
b0 9#
b0 8#
b0 7#
b0 6#
b0 5#
b0 4#
b0 3#
b0 2#
b0 1#
b0 0#
b0 /#
b0 .#
b0 -#
b0 ,#
b0 +#
b0 *#
b0 )#
b0 (#
b0 '#
b0 &#
b0 %#
b0 $#
b0 ##
b0 "#
b0 !#
b0 ~"
b0 }"
b0 |"
b0 {"
b0 z"
b10000000000000000 y"
b0 x"
b0 w"
b0 v"
0u"
b0 t"
b0 s"
b0 r"
b0 q"
b0 p"
b0 o"
b0 n"
b0 m"
0l"
b0 k"
b0 j"
b0 i"
b0 h"
b0 g"
bx f"
bx e"
0d"
0c"
b10 b"
b0 a"
b0 `"
b0 _"
b0 ^"
b0 ]"
b0 \"
b0 ["
b0 Z"
b0 Y"
b0 X"
b0 W"
b0 V"
b0 U"
b0 T"
b0 S"
b0 R"
b1 Q"
b0 P"
b0 O"
b0 N"
b0 M"
b0 L"
b0 K"
b0 J"
0I"
bx H"
b0 G"
b0 F"
bx E"
b0 D"
b0 C"
bx B"
b0 A"
b0 @"
bx ?"
b0 >"
b0 ="
bx <"
b0 ;"
b0 :"
bx 9"
b0 8"
b0 7"
bx 6"
b0 5"
b0 4"
bx 3"
b0 2"
b0 1"
bx 0"
b0 /"
b0 ."
bx -"
b0 ,"
b0 +"
bx *"
b0 )"
b0 ("
bx '"
b0 &"
b0 %"
bx $"
b0 #"
b0 ""
bx !"
b0 ~
b0 }
bx |
b0 {
b0 z
bx y
b0 x
b0 w
bx v
bx u
0t
b0 s
b0 r
b0 q
b0 p
bx o
bx n
bx m
bx l
0k
b0 j
b0 i
b0 h
b0 g
bx f
bx e
b11000000000000000000000000000000000001110000000000000000000000000000 d
1c
b11000000000000000000000000000000000001110000000000000000000000000000 b
1a
0`
b0 _
0^
0]
0\
0[
0Z
0Y
0X
0W
0V
0U
1T
1S
1R
0Q
0P
1O
b0 N
b0 M
0L
0K
0J
0I
0H
0G
1F
1E
0D
0C
0B
0A
0@
0?
1>
1=
b0xxxxxxxxxxxxxxxx <
b0xxxxxxxxxxxxxxxx ;
b0xxxxxxxxxxxxxxxx :
b0xxxxxxxxxxxxxxxx 9
b0xxxxxxxxxxxxxxxx 8
b0xxxxxxxxxxxxxxxx 7
b0xxxxxxxxxxxxxxxx 6
b0xxxxxxxxxxxxxxxx 5
b0xxxxxxxxxxxxxxxx 4
b0xxxxxxxxxxxxxxxx 3
b0xxxxxxxxxxxxxxxx 2
b0xxxxxxxxxxxxxxxx 1
b0xxxxxxxxxxxxxxxx 0
b0xxxxxxxxxxxxxxxx /
b0xxxxxxxxxxxxxxxx .
b0xxxxxxxxxxxxxxxx -
0,
0+
b0 *
b0 )
b0 (
b0 '
b0 &
b0 %
b0 $
b0 #
1"
0!
$end
#500
0m#
#1000
b1 3"
b1 H"
b0 2"
b1 q#
b1 p#
b100 -#
b10000000000000001 c#
b0 u#
b0 w#
b10000000000000001 j#
b0 v#
b0 t#
b100000000000100010000000000000001 :#
b0 G"
b100 Y#
b11 ;#
0Y
0Z
b10 z"
b10000000000000001 %
b10000000000000001 P#
b10000000000000001 &
b10000000000000001 F#
0!
b0 )
b0 P"
b100000000000100000000000000000000 <#
0[
b0 h
0\
b0 g
b10000000000000001 M#
b10000000000000001 C#
0D
1k
0+
0,
b11000000000000000000000000000000000000000000000100010000000000000001 b
b0 v"
b0 m"
b100000000000000000000 K#
b100010000000000000001 A#
b0 ~#
b0 !$
b0 N"
b1 i
b0 w"
b0 n"
b11000000000000000000000000000000000000000000000100000000000000000000 L#
b11000000000000000000000000000000000000000000000100010000000000000001 B#
b0 "$
b0 O"
1R
1"
1>
0=
1F
1E
b100010000000000000001 W#
1S
b11 Z#
0U
0V
0t
b0 q
b0 p
b11000000000000000000000000000000000000000000000100000000000000000000 d
b0 s
b1 r
b100000000000000000000 X#
1l#
b10001 U#
b10001 <$
b1 S#
b1 :$
b10000 V#
b10000 =$
b0 T#
b0 ;$
b100 b"
1Q#
b1 ?$
b1 A$
1R#
b1 >$
b0 @$
b11 Q"
b11 3$
b10 0$
b10 2$
1m#
#1500
0m#
#2000
04$
05$
b110000000000000100 '
b110000000000000100 #$
1!
b10000000000000100 y"
b1 {#
1k#
b1 z#
1D
b1 z"
b1100000000100100000000000000010 ~#
b10010 !$
b10 o#
b0 /"
b0 %
b0 P#
b11000000000000000001000000000000000101100000000100100000000000000010 "$
0"
b0 M#
b1 H"
b0 Y#
b0 &
b0 F#
b0 C#
1=
bx 0"
b0 j#
b0 q#
b101 Z#
b0 H#
b0 G#
b10000000000000000 O#
b10000000000000000 N#
b0 c#
b0 A#
b0 p#
b0 J#
b0 I#
b0 s#
b0 +#
b0 b#
b0 B#
b0 _
b1 n
b1 e
b1 o
b1 f
b0 ,#
b0 K#
b0 r#
b1 u
b1 l
b1 v
b1 m
0k
b0 L#
b0 i
b11000000000000000000000000000000000000110000000000000000000000000011 b
b0 :#
b0 -#
b0 <#
b11000000000000000001000000000000000101100000000100100000000000000010 d
b110000000000000000000000000011 W#
b0 ;#
b1100000000100100000000000000010 X#
b110 b"
b11000000000000 U#
b11000000000000 <$
b11 S#
b11 :$
b110000000010010 V#
b110000000010010 =$
b10 T#
b10 ;$
0l#
b1 .
b1 -
b10 %$
b10 '$
b101 Q"
b101 3$
b100 0$
b100 2$
b11 A$
b10 @$
1m#
#2500
0m#
#3000
0!
0D
1"
14$
15$
b0 z"
b0 Z#
b0 '
b0 #$
b10000000000000000 y"
b0 {#
1k#
b0 z#
b0 ~#
b0 !$
b0 o#
b0 "$
b11000000000000000000000000000000000001110000000000000000000000000000 b
b11000000000000000000000000000000000001110000000000000000000000000000 d
b1110000000000000000000000000000 W#
b0 r
b1110000000000000000000000000000 X#
1l#
bx U#
bx <$
bx S#
bx :$
bx V#
bx =$
bx T#
bx ;$
0Q#
b0 ?$
0R#
b0 >$
b0 %$
b0 '$
1m#
#3500
0m#
#4000
0J
b10 N
b10 7$
b10 k"
b1 j"
b1 i"
1a
b1 l
b10 /"
b10 Y#
b1 e
0\
b10 +#
0Z
1K
1u"
1L
1l"
b0 z"
b11 M
b11 6$
b11 t"
b0 %
b0 P#
b0 &
b0 F#
0!
b10000000000000000 y"
b0 )
b0 P"
b101010000000100100000000000000101 ,#
b0 g
b10 u#
b10 w#
b0 M#
b0 s#
b0 C#
b0 q#
0D
b11000000000000000001000000000000000101010000000100100000000000000101 b
b1000000001100100000000000000100 v"
b100 v#
b1010000000100100000000000000101 m"
b101 t#
b0 K#
b0 r#
b0 A#
b0 p#
b0 ~#
b0 !$
b0 o#
b0 N"
b0 n#
b1 i
b11000000000000000000000000000000000001000000001100100000000000000100 w"
b11000000000000000001000000000000000101010000000100100000000000000101 n"
b0 L#
b0 B#
b0 "$
b0 O"
1R
1"
1>
1=
1F
0E
b1 v
bx u
b1010000000100100000000000000101 W#
1S
b1 Z#
b1 o
bx n
0U
0V
0t
b0 q
b0 p
b11000000000000000000000000000000000001000000001100100000000000000100 d
b0 s
b11 r
b1000000001100100000000000000100 X#
b1000 b"
b101000000010010 U#
b101000000010010 <$
b101 S#
b101 :$
b100000000110010 V#
b100000000110010 =$
b100 T#
b100 ;$
0l#
b111 Q"
b111 3$
b110 0$
b110 2$
1Q#
b1 ?$
b101 A$
1R#
b1 >$
b100 @$
1m#
#4500
0m#
#5000
bx -"
b0 a#
b11 ,"
b0 z"
1@
b10000000000000001 O#
b0 N#
b1 %
b1 P#
b1 J#
b10 I#
b10000000000010010 M#
b11 s#
b10001001000110000000000000110 K#
b1 _
b110 r#
b10010000000000000001000000000000001000010001001000110000000000000110 L#
0=
0c
b11 )#
b0 <#
0a
b10 n
b0 |"
b10 /"
1V
b100010001001000110000000000000110 *#
b0 Y#
1k
b11 Z#
b0 i
b10000000000000000000000000000000000000100000000010010000000000000111 b
b0 ,#
b0 +#
1t
b10 p
b1 s
b10 r
b10010000000000000001000000000000001000010001001000110000000000000110 d
0O
b100000000010010000000000000111 W#
b10001001000110000000000000110 X#
0F
1l#
b10000000001001 U#
b10000000001001 <$
b111 S#
b111 :$
b1000100100011 V#
b1000100100011 =$
b110 T#
b110 ;$
b10 ."
0L
0l"
0K
0u"
b1010 b"
b111 A$
b110 @$
b1100100 C$
b10 E$
b1100100 B$
b11 D$
b10xxxxxxxxxxxxxxxx 5
1/$
b11000000000000000001000000000000000101010000000100100000000000000101 -$
1.$
b11000000000000000000000000000000000001000000001100100000000000000100 ,$
b10 %$
b10 '$
b1001 Q"
b1001 3$
b1000 0$
b1000 2$
1m#
#5500
0m#
#6000
b0 z"
b0 &
b0 F#
b10000000000010000 y"
b0 C#
1D
b0 A#
b0 $#
b100000000010010000000000000111 ~#
b1001 !$
b111 o#
b0 B#
b10000000000000000000000000000000000000100000000010010000000000000111 "$
0"
b0 Y#
b1 l
b1 u
b0 x
b1 e
b101 Z#
0\
b0 {"
0Z
0k
0a
0V
b0 |"
b0 g
b1 n
b0 *#
b11 ,"
b10000000000000000000000000000000000000100000000001100000000000001000 b
b0 p
b10000000000000000000000000000000000000100000000010010000000000000111 d
b0 j
b0 i
b0 s
b0 r
b0 )#
b100000000001100000000000001000 W#
b100000000010010000000000000111 X#
b11 +"
b1100 b"
b1000000000000000 U#
b1000000000000000 <$
b1001 S#
b1001 :$
b10000000000110 V#
b10000000000110 =$
b1000 T#
b1000 ;$
0l#
b11xxxxxxxxxxxxxxxx 6
b10010000000000000001000000000000001000010001001000110000000000000110 *$
b11 %$
b100 '$
b1 &$
b1011 Q"
b1011 3$
b1010 0$
b1010 2$
b1100011 C$
b1100011 B$
b1001 A$
b1000 @$
1m#
#6500
0m#
#7000
b10000000000000000000000000000000000001110000000000000000000000000000 b
0t
b10000000000000000000000000000000000000100000000001100000000000001000 d
b1110000000000000000000000000000 W#
b0 Z#
b100000000001100000000000001000 X#
1l#
b1000001000100010 U#
b1000001000100010 <$
b1011 S#
b1011 :$
b1000000100010001 V#
b1000000100010001 =$
b1010 T#
b1010 ;$
b1110 b"
b1011 A$
b1010 @$
b1100010 C$
b1100010 B$
b10000000000000000000000000000000000000100000000010010000000000000111 ($
b100 %$
b110 '$
b10 &$
b1101 Q"
b1101 3$
b1100 0$
b1100 2$
1m#
#7500
0m#
#8000
b10000 b"
b1000010001000100 U#
b1000010001000100 <$
b1101 S#
b1101 :$
b1000001100110011 V#
b1000001100110011 =$
b1100 T#
b1100 ;$
0l#
b1000 '$
b100 &$
b1111 Q"
b1111 3$
b1110 0$
b1110 2$
b1100001 C$
b1100001 B$
b1101 A$
b1100 @$
1m#
#8500
0m#
#9000
1l#
b1000011001100110 U#
b1000011001100110 <$
b1111 S#
b1111 :$
b1000010101010101 V#
b1000010101010101 =$
b1110 T#
b1110 ;$
b10010 b"
b1111 A$
b1110 @$
b1100000 C$
b1100000 B$
b1010 '$
b110 &$
b10001 Q"
b10001 3$
b10000 0$
b10000 2$
1m#
#9500
0m#
#10000
b10100 b"
b1000100010001000 U#
b1000100010001000 <$
b10001 S#
b10001 :$
b1000011101110111 V#
b1000011101110111 =$
b10000 T#
b10000 ;$
0l#
b1100 '$
b1000 &$
b10011 Q"
b10011 3$
b10010 0$
b10010 2$
b1011111 C$
b1011111 B$
b10001 A$
b10000 @$
1m#
#10500
0m#
#11000
1l#
b1000101010101010 U#
b1000101010101010 <$
b10011 S#
b10011 :$
b1000100110011001 V#
b1000100110011001 =$
b10010 T#
b10010 ;$
b10110 b"
b10011 A$
b10010 @$
b1011110 C$
b1011110 B$
b1110 '$
b1010 &$
b10101 Q"
b10101 3$
b10100 0$
b10100 2$
1m#
#11500
0m#
#12000
b11000 b"
b1000110011001100 U#
b1000110011001100 <$
b10101 S#
b10101 :$
b1000101110111011 V#
b1000101110111011 =$
b10100 T#
b10100 ;$
0l#
b10000 '$
b1100 &$
b10111 Q"
b10111 3$
b10110 0$
b10110 2$
b1011101 C$
b1011101 B$
b10101 A$
b10100 @$
1m#
#12500
0m#
